{
  "page":1,
  "limit":50,
  "pages":109,
  "total":5409,
  "items":[
    {
      "id":4760,
      "parent_id":2027,
      "name":"3D Glasses",
      "description":null,
      "root":222,
      "created_at":"2016-11-28T10:58:29+00:00",
      "updated_at":"2016-11-28T10:58:29+00:00"
    },
    {
      "id":6027,
      "parent_id":319,
      "name":"3D Modeling Software",
      "description":null,
      "root":2092,
      "created_at":"2016-11-28T11:16:22+00:00",
      "updated_at":"2016-11-28T11:16:22+00:00"
    },
    {
      "id":499682,
      "parent_id":345,
      "name":"3D Printer Accessories",
      "description":null,
      "root":222,
      "created_at":"2016-11-28T10:58:21+00:00",
      "updated_at":"2016-11-28T10:58:21+00:00"
    },
    {
      "id":6865,
      "parent_id":345,
      "name":"3D Printers",
      "description":null,
      "root":222,
      "created_at":"2016-11-28T10:58:22+00:00",
      "updated_at":"2016-11-28T10:58:22+00:00"
    },
    {
      "id":499797,
      "parent_id":990,
      "name":"Ab Wheels & Rollers",
      "description":null,
      "root":988,
      "created_at":"2016-11-28T11:18:51+00:00",
      "updated_at":"2016-11-28T11:18:51+00:00"
    },
    {
      "id":6939,
      "parent_id":3650,
      "name":"Abrasive Blaster Accessories",
      "description":null,
      "root":632,
      "created_at":"2016-11-28T11:02:06+00:00",
      "updated_at":"2016-11-28T11:02:06+00:00"
    },
    {
      "id":6938,
      "parent_id":1167,
      "name":"Abrasive Blasters",
      "description":null,
      "root":632,
      "created_at":"2016-11-28T11:02:27+00:00",
      "updated_at":"2016-11-28T11:02:27+00:00"
    },
    {
      "id":505761,
      "parent_id":417,
      "name":"Absinthe",
      "description":null,
      "root":412,
      "created_at":"2016-11-28T10:58:37+00:00",
      "updated_at":"2016-11-28T10:58:37+00:00"
    },
    {
      "id":7075,
      "parent_id":649,
      "name":"Absinthe Fountains",
      "description":null,
      "root":536,
      "created_at":"2016-11-28T11:08:31+00:00",
      "updated_at":"2016-11-28T11:08:31+00:00"
    },
    {
      "id":7395,
      "parent_id":1801,
      "name":"Accelerometers",
      "description":null,
      "root":222,
      "created_at":"2016-11-28T10:57:33+00:00",
      "updated_at":"2016-11-28T10:57:33+00:00"
    },
    {
      "id":6369,
      "parent_id":6392,
      "name":"Accent Tables",
      "description":null,
      "root":436,
      "created_at":"2016-11-28T11:00:43+00:00",
      "updated_at":"2016-11-28T11:00:43+00:00"
    },
    {
      "id":520,
      "parent_id":519,
      "name":"Accessibility Equipment",
      "description":null,
      "root":469,
      "created_at":"2016-11-28T11:04:03+00:00",
      "updated_at":"2016-11-28T11:04:03+00:00"
    },
    {
      "id":521,
      "parent_id":519,
      "name":"Accessibility Equipment Accessories",
      "description":null,
      "root":469,
      "created_at":"2016-11-28T11:04:05+00:00",
      "updated_at":"2016-11-28T11:04:05+00:00"
    },
    {
      "id":5488,
      "parent_id":519,
      "name":"Accessibility Furniture & Fixtures",
      "description":null,
      "root":469,
      "created_at":"2016-11-28T11:04:06+00:00",
      "updated_at":"2016-11-28T11:04:06+00:00"
    },
    {
      "id":4983,
      "parent_id":54,
      "name":"Accordions & Concertinas",
      "description":null,
      "root":8,
      "created_at":"2016-11-28T10:55:40+00:00",
      "updated_at":"2016-11-28T10:55:40+00:00"
    },
    {
      "id":1735,
      "parent_id":2277,
      "name":"Acid Neutralizers",
      "description":null,
      "root":632,
      "created_at":"2016-11-28T11:00:46+00:00",
      "updated_at":"2016-11-28T11:00:46+00:00"
    },
    {
      "id":481,
      "parent_id":567,
      "name":"Acne Treatments & Kits",
      "description":null,
      "root":469,
      "created_at":"2016-11-28T11:04:51+00:00",
      "updated_at":"2016-11-28T11:04:51+00:00"
    },
    {
      "id":3775,
      "parent_id":3502,
      "name":"Acoustic Guitar Pickups",
      "description":null,
      "root":8,
      "created_at":"2016-11-28T10:55:29+00:00",
      "updated_at":"2016-11-28T10:55:29+00:00"
    },
    {
      "id":6058,
      "parent_id":1255,
      "name":"Action & Toy Figures",
      "description":null,
      "root":1239,
      "created_at":"2016-11-28T11:53:12+00:00",
      "updated_at":"2016-11-28T11:53:12+00:00"
    },
    {
      "id":5322,
      "parent_id":1604,
      "name":"Activewear",
      "description":null,
      "root":166,
      "created_at":"2016-11-28T10:54:42+00:00",
      "updated_at":"2016-11-28T10:54:42+00:00"
    },
    {
      "id":505819,
      "parent_id":5071,
      "name":"Activity Monitor Accessories",
      "description":null,
      "root":469,
      "created_at":"2016-11-28T11:03:41+00:00",
      "updated_at":"2016-11-28T11:03:41+00:00"
    },
    {
      "id":500009,
      "parent_id":494,
      "name":"Activity Monitors",
      "description":null,
      "root":469,
      "created_at":"2016-11-28T11:03:45+00:00",
      "updated_at":"2016-11-28T11:03:45+00:00"
    },
    {
      "id":6351,
      "parent_id":6392,
      "name":"Activity Tables",
      "description":null,
      "root":436,
      "created_at":"2016-11-28T11:00:44+00:00",
      "updated_at":"2016-11-28T11:00:44+00:00"
    },
    {
      "id":4352,
      "parent_id":1253,
      "name":"Activity Toys",
      "description":null,
      "root":1239,
      "created_at":"2016-11-28T11:52:52+00:00",
      "updated_at":"2016-11-28T11:52:52+00:00"
    },
    {
      "id":5849,
      "parent_id":491,
      "name":"Acupuncture",
      "description":null,
      "root":469,
      "created_at":"2016-11-28T11:03:39+00:00",
      "updated_at":"2016-11-28T11:03:39+00:00"
    },
    {
      "id":5850,
      "parent_id":5849,
      "name":"Acupuncture Models",
      "description":null,
      "root":469,
      "created_at":"2016-11-28T11:03:40+00:00",
      "updated_at":"2016-11-28T11:03:40+00:00"
    },
    {
      "id":5851,
      "parent_id":5849,
      "name":"Acupuncture Needles",
      "description":null,
      "root":469,
      "created_at":"2016-11-28T11:03:40+00:00",
      "updated_at":"2016-11-28T11:03:40+00:00"
    },
    {
      "id":258,
      "parent_id":2082,
      "name":"Adapters",
      "description":null,
      "root":222,
      "created_at":"2016-11-28T10:57:38+00:00",
      "updated_at":"2016-11-28T10:57:38+00:00"
    },
    {
      "id":5997,
      "parent_id":923,
      "name":"Address Books",
      "description":null,
      "root":922,
      "created_at":"2016-11-28T11:14:53+00:00",
      "updated_at":"2016-11-28T11:14:53+00:00"
    },
    {
      "id":4377,
      "parent_id":960,
      "name":"Address Labels",
      "description":null,
      "root":922,
      "created_at":"2016-11-28T11:15:09+00:00",
      "updated_at":"2016-11-28T11:15:09+00:00"
    },
    {
      "id":572,
      "parent_id":696,
      "name":"Address Signs",
      "description":null,
      "root":536,
      "created_at":"2016-11-28T11:06:02+00:00",
      "updated_at":"2016-11-28T11:06:02+00:00"
    },
    {
      "id":499913,
      "parent_id":474,
      "name":"Adult Hygienic Wipes",
      "description":null,
      "root":469,
      "created_at":"2016-11-28T11:04:18+00:00",
      "updated_at":"2016-11-28T11:04:18+00:00"
    },
    {
      "id":5359,
      "parent_id":596,
      "name":"Advent Calendars",
      "description":null,
      "root":536,
      "created_at":"2016-11-28T11:06:40+00:00",
      "updated_at":"2016-11-28T11:06:40+00:00"
    },
    {
      "id":5863,
      "parent_id":111,
      "name":"Advertising & Marketing",
      "description":null,
      "root":111,
      "created_at":"2016-11-28T10:56:08+00:00",
      "updated_at":"2016-11-28T10:56:08+00:00"
    },
    {
      "id":328061,
      "parent_id":96,
      "name":"Advice Cards",
      "description":null,
      "root":8,
      "created_at":"2016-11-28T10:55:52+00:00",
      "updated_at":"2016-11-28T10:55:52+00:00"
    },
    {
      "id":237166,
      "parent_id":990,
      "name":"Aerobic Steps",
      "description":null,
      "root":988,
      "created_at":"2016-11-28T11:18:52+00:00",
      "updated_at":"2016-11-28T11:18:52+00:00"
    },
    {
      "id":529,
      "parent_id":528,
      "name":"Aftershave",
      "description":null,
      "root":469,
      "created_at":"2016-11-28T11:05:32+00:00",
      "updated_at":"2016-11-28T11:05:32+00:00"
    },
    {
      "id":112,
      "parent_id":111,
      "name":"Agriculture",
      "description":null,
      "root":111,
      "created_at":"2016-11-28T10:56:09+00:00",
      "updated_at":"2016-11-28T10:56:09+00:00"
    },
    {
      "id":500090,
      "parent_id":499873,
      "name":"Air & Filter Dryers",
      "description":null,
      "root":632,
      "created_at":"2016-11-28T11:01:28+00:00",
      "updated_at":"2016-11-28T11:01:28+00:00"
    },
    {
      "id":3966,
      "parent_id":1261,
      "name":"Air & Water Rockets",
      "description":null,
      "root":1239,
      "created_at":"2016-11-28T11:53:31+00:00",
      "updated_at":"2016-11-28T11:53:31+00:00"
    },
    {
      "id":2367,
      "parent_id":3348,
      "name":"Air Conditioner Accessories",
      "description":null,
      "root":536,
      "created_at":"2016-11-28T11:07:07+00:00",
      "updated_at":"2016-11-28T11:07:07+00:00"
    },
    {
      "id":5826,
      "parent_id":2367,
      "name":"Air Conditioner Covers",
      "description":null,
      "root":536,
      "created_at":"2016-11-28T11:07:08+00:00",
      "updated_at":"2016-11-28T11:07:08+00:00"
    },
    {
      "id":3573,
      "parent_id":2367,
      "name":"Air Conditioner Filters",
      "description":null,
      "root":536,
      "created_at":"2016-11-28T11:07:08+00:00",
      "updated_at":"2016-11-28T11:07:08+00:00"
    },
    {
      "id":605,
      "parent_id":1626,
      "name":"Air Conditioners",
      "description":null,
      "root":536,
      "created_at":"2016-11-28T11:07:20+00:00",
      "updated_at":"2016-11-28T11:07:20+00:00"
    },
    {
      "id":499874,
      "parent_id":499873,
      "name":"Air Ducts",
      "description":null,
      "root":632,
      "created_at":"2016-11-28T11:01:28+00:00",
      "updated_at":"2016-11-28T11:01:28+00:00"
    },
    {
      "id":3898,
      "parent_id":592,
      "name":"Air Fresheners",
      "description":null,
      "root":536,
      "created_at":"2016-11-28T11:06:28+00:00",
      "updated_at":"2016-11-28T11:06:28+00:00"
    },
    {
      "id":7087,
      "parent_id":7056,
      "name":"Air Hammer Accessories",
      "description":null,
      "root":632,
      "created_at":"2016-11-28T11:02:12+00:00",
      "updated_at":"2016-11-28T11:02:12+00:00"
    },
    {
      "id":1002,
      "parent_id":1001,
      "name":"Air Hockey",
      "description":null,
      "root":988,
      "created_at":"2016-11-28T11:19:24+00:00",
      "updated_at":"2016-11-28T11:19:24+00:00"
    },
    {
      "id":505330,
      "parent_id":1002,
      "name":"Air Hockey Equipment",
      "description":null,
      "root":988,
      "created_at":"2016-11-28T11:19:24+00:00",
      "updated_at":"2016-11-28T11:19:24+00:00"
    },
    {
      "id":3548,
      "parent_id":1002,
      "name":"Air Hockey Table Parts",
      "description":null,
      "root":988,
      "created_at":"2016-11-28T11:19:25+00:00",
      "updated_at":"2016-11-28T11:19:25+00:00"
    }
  ],
  "_links":{
    "self":{
      "href":"/v1/public/categories?page=1&limit=50"
    },
    "first":{
      "href":"/v1/public/categories?page=1&limit=50"
    },
    "last":{
      "href":"/v1/public/categories?page=109&limit=50"
    },
    "next":{
      "href":"/v1/public/categories?page=2&limit=50"
    }
  }
}